<?xml version="1.0" encoding="UTF-8"?>
<svg width="14px" height="14px" viewBox="0 0 14 14" version="1.1" xmlns="http://www.w3.org/2000/svg" xmlns:xlink="http://www.w3.org/1999/xlink">
    <!-- Generator: sketchtool 63.1 (101010) - https://sketch.com -->
    <title>173A0338-1ED2-400D-8C5C-BBCB91E26AC3</title>
    <desc>Created with sketchtool.</desc>
    <g id="Page-1" stroke="none" stroke-width="1" fill="none" fill-rule="evenodd">
        <g id="MPC_Add_New_Subscription" transform="translate(-1146.000000, -132.000000)" fill="#000000" fill-rule="nonzero">
            <g id="Popup_Dealer_Data" transform="translate(260.000000, 111.000000)">
                <path d="M894.541935,28 L899.776341,22.7650254 C899.920325,22.6209184 899.999772,22.428662 900,22.2236568 C900,22.0185378 899.920553,21.8260537 899.776341,21.6821745 L899.317642,21.2235593 C899.173431,21.0791108 898.981187,21 898.775967,21 C898.571089,21 898.378846,21.0791108 898.234634,21.2235593 L893.000228,26.4581924 L887.765593,21.2235593 C887.62161,21.0791108 887.429252,21 887.224146,21 C887.019268,21 886.826911,21.0791108 886.682927,21.2235593 L886.224,21.6821745 C885.925333,21.9808605 885.925333,22.4666808 886.224,22.7650254 L891.45852,28 L886.224,33.234747 C886.079902,33.3790816 886.000569,33.571338 886.000569,33.7763432 C886.000569,33.9813484 886.079902,34.1736048 886.224,34.3178255 L886.682813,34.7764407 C886.826797,34.9207753 887.019268,35 887.224033,35 C887.429138,35 887.621496,34.9207753 887.76548,34.7764407 L893.000114,29.5416938 L898.23452,34.7764407 C898.378732,34.9207753 898.570976,35 898.775854,35 L898.776081,35 C898.981073,35 899.173317,34.9207753 899.317528,34.7764407 L899.776228,34.3178255 C899.920211,34.1737186 899.999659,33.9813484 899.999659,33.7763432 C899.999659,33.571338 899.920211,33.3790816 899.776228,33.2348608 L894.541935,28 Z" id="Close"></path>
            </g>
        </g>
    </g>
</svg>