<svg xmlns="http://www.w3.org/2000/svg" width="14" height="14" viewBox="0 0 14 14">
    <g fill="none" fill-rule="evenodd">
        <g fill="#E5923A" fill-rule="nonzero">
            <g>
                <g>
                    <g>
                        <path d="M11.95 2.05c-2.734-2.733-7.166-2.734-9.9 0s-2.733 7.166 0 9.9c2.734 2.733 7.166 2.733 9.9 0 2.733-2.734 2.733-7.166 0-9.9zm-4.037 7.993c0 .505-.409.914-.913.914-.505 0-.913-.41-.913-.914V6.391c0-.504.408-.913.913-.913.504 0 .913.409.913.913v3.652zm-.93-5.212c-.525 0-.876-.373-.865-.833-.011-.482.34-.843.876-.843.537 0 .877.361.888.843 0 .46-.35.833-.898.833z" transform="translate(-1349 -750) translate(126 658) translate(1095 91) translate(128 1)"/>
                    </g>
                </g>
            </g>
        </g>
    </g>
</svg>
