<svg xmlns="http://www.w3.org/2000/svg" width="22" height="20" viewBox="0 0 22 20">
    <g fill="none" fill-rule="evenodd">
        <g fill="#FFF" fill-rule="nonzero" stroke="#FFF" stroke-width=".889">
            <g>
                <g>
                    <g>
                        <path d="M17.439 9.985h-2c-.272 0-.536.037-.787.106-.494-.973-1.504-1.641-2.668-1.641H8.448c-1.164 0-2.174.668-2.668 1.64-.251-.068-.515-.105-.787-.105h-2C1.343 9.985 0 11.328 0 12.978v3.197c0 .99.806 1.796 1.796 1.796h16.84c.99 0 1.796-.806 1.796-1.796v-3.197c0-1.65-1.343-2.993-2.993-2.993zM5.455 11.443v5.33h-3.66c-.33 0-.598-.268-.598-.598v-3.197c0-.99.806-1.796 1.796-1.796h2c.162 0 .32.022.47.063-.005.065-.008.131-.008.198zm8.324 5.33H6.653v-5.33c0-.99.805-1.796 1.795-1.796h3.536c.99 0 1.795.805 1.795 1.796v5.33zm5.456-.598c0 .33-.269.599-.599.599h-3.66v-5.331c0-.067-.002-.133-.007-.198.15-.04.307-.063.47-.063h2c.99 0 1.796.806 1.796 1.796v3.197zM3.993 3.332c-1.467 0-2.66 1.193-2.66 2.66 0 1.466 1.193 2.66 2.66 2.66 1.466 0 2.66-1.194 2.66-2.66 0-1.467-1.193-2.66-2.66-2.66zm0 4.122c-.806 0-1.462-.656-1.462-1.462 0-.806.656-1.462 1.462-1.462.806 0 1.462.656 1.462 1.462 0 .806-.656 1.462-1.462 1.462zM10.216.03c-1.96 0-3.553 1.593-3.553 3.552 0 1.96 1.594 3.553 3.553 3.553 1.96 0 3.553-1.594 3.553-3.553 0-1.959-1.594-3.553-3.553-3.553zm0 5.908c-1.3 0-2.356-1.057-2.356-2.356s1.057-2.356 2.356-2.356c1.3 0 2.356 1.057 2.356 2.356 0 1.3-1.057 2.356-2.356 2.356zM16.439 3.332c-1.467 0-2.66 1.193-2.66 2.66 0 1.466 1.193 2.66 2.66 2.66 1.466 0 2.66-1.194 2.66-2.66 0-1.467-1.194-2.66-2.66-2.66zm0 4.122c-.806 0-1.462-.656-1.462-1.462 0-.806.656-1.462 1.462-1.462.806 0 1.462.656 1.462 1.462 0 .806-.656 1.462-1.462 1.462z" transform="translate(-29 -230) translate(30 231)"/>
                    </g>
                </g>
            </g>
        </g>
    </g>
</svg>
