<?xml version="1.0" encoding="UTF-8"?>
<svg width="19px" height="19px" viewBox="0 0 19 19" version="1.1" xmlns="http://www.w3.org/2000/svg" xmlns:xlink="http://www.w3.org/1999/xlink">
    <!-- Generator: sketchtool 63.1 (101010) - https://sketch.com -->
    <title>F8B6E761-4D26-49A9-BD44-A0E2A974C529</title>
    <desc>Created with sketchtool.</desc>
    <g id="Page-1" stroke="none" stroke-width="1" fill="none" fill-rule="evenodd">
        <g id="Menu_Icons" transform="translate(-79.000000, -273.000000)" fill="#FFFFFF" fill-rule="nonzero" stroke="#FFFFFF">
            <g id="settings-(2)-copy" transform="translate(80.000000, 274.000000)">
                <path d="M16.356125,6.06548047 L14.3954473,5.77648047 C14.226875,5.39255273 14.0129473,5.01573047 13.7473223,4.63323047 L14.4931973,2.72355273 C14.6313223,2.36230273 14.4889473,1.96423047 14.1638223,1.78217773 L11.3481973,0.109105469 C11.0216445,-0.0892167969 10.597375,-0.00919726563 10.3607695,0.297533203 L9.13889453,1.90333594 C8.6657168,1.85376367 8.3342168,1.85376367 7.86107227,1.90333594 L6.6385,0.295408203 C6.40757227,-0.00421679688 5.99744727,-0.0856640625 5.65532227,0.106980469 L2.84467773,1.77723047 C2.5245,1.95642773 2.37860547,2.35948047 2.50823047,2.72567773 L3.25267773,4.630375 C2.99555273,4.99517773 2.77880273,5.37907227 2.60525,5.77575 L0.650947266,6.06405273 C0.279802734,6.11223047 0,6.44021094 0,6.82623047 L0,10.1759277 C0,10.5626777 0.279802734,10.890625 0.644572266,10.9366777 L2.60525,11.2256777 C2.77382227,11.6096055 2.98775,11.9864277 3.253375,12.3689277 L2.5075,14.2786055 C2.369375,14.6405527 2.51175,15.0386582 2.836875,15.2199805 L5.663125,16.9001582 C5.78355273,16.9674609 5.913875,17.0000332 6.04207227,17.0000332 C6.27014453,17.0000332 6.491875,16.8973359 6.640625,16.7039609 L7.86180273,15.0981582 C8.238625,15.1392305 8.76423047,15.1392305 9.14035547,15.0981582 L10.3629277,16.7060859 C10.593125,17.0050137 11.00325,17.0871582 11.3461055,16.8952109 L12.1606777,16.4107109 C12.3285527,16.3108359 12.3838027,16.0933887 12.2839277,15.9255137 C12.1840527,15.7576387 11.9666055,15.7016914 11.7987305,15.8022637 L10.9253555,16.2761387 L9.5816582,14.5088359 C9.5051582,14.4082637 9.3819082,14.3572637 9.2544082,14.3721387 C8.8251582,14.4273887 8.17773047,14.4273887 7.74848047,14.3721387 C7.62167773,14.3579609 7.49773047,14.4082637 7.42123047,14.5088359 L6.01873047,16.2867637 L3.19248047,14.6065859 C3.16555273,14.5910137 3.16130273,14.5570137 3.1705332,14.5336387 L3.98510547,12.4483164 C4.0290332,12.3349941 4.01273047,12.2081914 3.94117773,12.1104414 C3.61180273,11.6578164 3.36460547,11.2200664 3.18610547,10.7723887 C3.13935547,10.6548164 3.03310547,10.5712109 2.90842773,10.5528164 L0.750125,10.2347637 C0.748,10.2347637 0.712572266,10.1752637 0.710447266,10.1752637 L0.710447266,6.8255332 L0.750125,6.76533594 L2.90842773,6.4472832 C3.03380273,6.42885547 3.13935547,6.3452832 3.18610547,6.22771094 C3.37167773,5.76163867 3.62455273,5.3125332 3.93905273,4.89321094 C4.012,4.79546094 4.02973047,4.6665332 3.98510547,4.55251367 L3.17405273,2.47848047 C3.164125,2.44873047 3.17335547,2.4055332 3.20098047,2.38992773 L6.07823047,0.725355469 L7.42192773,2.4926582 C7.49842773,2.5925332 7.62167773,2.6435332 7.74917773,2.62935547 C8.3385,2.55355273 8.66575,2.55355273 9.25510547,2.62935547 C9.38330273,2.64423047 9.50585547,2.59323047 9.58235547,2.4926582 L10.9848555,0.715460937 L13.8104082,2.3949082 C13.8373359,2.41048047 13.8422832,2.44448047 13.8330859,2.46785547 L13.0185137,4.55317773 C12.9745859,4.6665 12.9908887,4.79330273 13.0624414,4.89105273 C13.3918164,5.34367773 13.6390137,5.78142773 13.8175137,6.22910547 C13.8642637,6.34667773 13.9705137,6.4302832 14.0951914,6.44867773 L16.2534941,6.76673047 C16.2556191,6.76742773 16.2910469,6.82692773 16.2931719,6.82692773 L16.2931719,10.176625 L16.2534941,10.236125 L14.8694219,10.440125 C14.6753496,10.4684473 14.5414746,10.648375 14.5704941,10.84175 C14.5988164,11.035125 14.7773164,11.171125 14.9721191,11.1406777 L16.3491191,10.937375 C16.7202969,10.8899277 17.0007969,10.5626777 17.0007969,10.1759277 L17.0007969,6.82623047 C17,6.44021094 16.7209277,6.11223047 16.356125,6.06548047 Z" id="Path"></path>
                <path d="M12.6281777,10.0017109 C12.2329277,9.60646094 12.0176055,9.10496094 12.0388555,8.6254082 C12.0764082,7.75133594 11.7109082,6.9169082 10.9211055,6.07471094 C10.2453555,5.35433594 9.33798047,4.94563867 8.4554082,4.95838867 C7.66846094,4.96831641 6.91833594,5.24313867 6.2857832,5.75383594 C6.19583594,5.8267832 6.14696094,5.93871094 6.15473047,6.0541582 C6.16323047,6.16960547 6.22698047,6.27373047 6.3261582,6.3325332 L8.49083594,7.6309082 C8.42638867,8.28185547 8.04176367,8.8527832 7.45313867,9.15735547 L5.51513867,7.9942832 C5.40819141,7.92983594 5.25944141,7.9347832 5.14894141,7.99498047 C5.04126367,8.0537832 4.97186914,8.16355273 4.96476367,8.2854082 C4.90669141,9.27283594 5.24738867,10.2113555 5.92313867,10.9282109 C6.59038867,11.6351387 7.52963867,12.0402832 8.50076367,12.0402832 C8.76144141,12.0402832 9.02281641,12.0062832 9.30969141,11.9333359 L13.8309941,16.4546387 C14.1816191,16.8059609 14.6476914,16.9986387 15.1442441,16.9986387 C16.1677969,16.9986387 17.0000664,16.1656387 17.0000664,15.1420859 C17.0000664,14.6462637 16.8066914,14.1801582 16.4560664,13.8295332 L12.6281777,10.0017109 Z M15.1441777,16.2909805 L15.14275,16.2909805 C14.8360527,16.2909805 14.54775,16.1712832 14.331,15.9545332 L9.66380273,11.2873359 C9.59580273,11.2200332 9.50585547,11.1839082 9.41305273,11.1839082 C9.37835547,11.1839082 9.34435547,11.1881582 9.31248047,11.1980859 C9.00930273,11.2894609 8.75217773,11.3319609 8.50142773,11.3319609 C7.71235547,11.3319609 6.980625,11.0160332 6.43948047,10.4422832 C6.03855273,10.0172832 5.78567773,9.4945332 5.69998047,8.9314082 L7.25617773,9.86498047 C7.36030273,9.92730273 7.48780273,9.93155273 7.596875,9.87842773 L7.74632227,9.80405273 C8.64801953,9.35285547 9.20901953,8.44548047 9.20901953,7.43680273 C9.20901953,7.312125 9.14314453,7.19667773 9.03689453,7.13292773 L7.16689453,6.01092773 C7.56851953,5.78992773 8.0090918,5.671625 8.46457227,5.66598047 C9.148125,5.65605273 9.86494727,5.98260547 10.4046973,6.55848047 C11.0662695,7.26467773 11.3609473,7.9114082 11.3311973,8.59423047 C11.3014473,9.2714082 11.591875,9.96698047 12.127375,10.5024805 L15.9551973,14.3310332 C16.1726445,14.5477832 16.2916453,14.8360859 16.2916453,15.1434805 C16.292375,15.7760332 15.778125,16.2909805 15.1441777,16.2909805 Z" id="Shape"></path>
            </g>
        </g>
    </g>
</svg>