<?xml version="1.0" encoding="UTF-8"?>
<svg width="30px" height="30px" viewBox="0 0 30 30" version="1.1" xmlns="http://www.w3.org/2000/svg" xmlns:xlink="http://www.w3.org/1999/xlink">
    <!-- Generator: sketchtool 63.1 (101010) - https://sketch.com -->
    <title>4875F012-A92F-44B9-9904-10CBFDCBDB5F</title>
    <desc>Created with sketchtool.</desc>
    <g id="Page-1" stroke="none" stroke-width="1" fill="none" fill-rule="evenodd">
        <g id="MPC_Add_New_Subscription2" transform="translate(-604.000000, -167.000000)">
            <g id="Popup_Subscription_Data" transform="translate(260.000000, 136.000000)">
                <g id="Progress" transform="translate(319.000000, 31.000000)">
                    <g id="Dealer_Data">
                        <g id="Group-4">
                            <g transform="translate(25.000000, 0.000000)">
                                <circle id="Oval" fill="#6EA046" cx="15" cy="15" r="15"></circle>
                                <path d="M13.9779678,19.8073319 C13.8538422,19.9309551 13.68458,20 13.5086801,20 C13.3327802,20 13.163518,19.9309551 13.0393924,19.8073319 L9.29172836,16.0940325 C8.90275721,15.7086964 8.90275721,15.0840046 9.29172836,14.699326 L9.76101608,14.2344238 C10.1499872,13.8490876 10.7799081,13.8490876 11.1688792,14.2344238 L13.5086801,16.552359 L19.8311208,10.2890021 C20.2200919,9.90366595 20.8506765,9.90366595 21.2389839,10.2890021 L21.7082716,10.7539043 C22.0972428,11.1392405 22.0972428,11.7639323 21.7082716,12.1486109 L13.9779678,19.8073319 Z" id="Path" fill="#FFFFFF" fill-rule="nonzero"></path>
                            </g>
                        </g>
                    </g>
                </g>
            </g>
        </g>
    </g>
</svg>